WIDTH=12;
DEPTH=256;
ADDRESS_RADIX=DEC;
DATA_RADIX=HEX;
CONTENT BEGIN
  0       :   000;
  1       :   030;
  2       :   907;
  3       :   60B;
  4       :   131;
  5       :   200;
  6       :   B00;
  7       :   131;
  8       :   200;
  9       :   904;
  10      :   B00;
  11      :   800;
  [12..47]:   000;
  48      :   003;
  49      :   001;
  [50..255]:   000;
END;
